\relax 
\@writefile{toc}{\contentsline {chapter}{\numberline {1}Introducci\IeC {\'o}n a lenguajes de programaci\IeC {\'o}n}{1}}
\@writefile{lof}{\addvspace {10\p@ }}
\@writefile{lot}{\addvspace {10\p@ }}
\@writefile{toc}{\contentsline {section}{\numberline {1.1}Tipos de lengaujes}{1}}
\@writefile{toc}{\contentsline {section}{\numberline {1.2}Tipos de interpretes}{1}}
\@writefile{toc}{\contentsline {subsection}{\numberline {1.2.1}Ensambladores}{2}}
\@writefile{toc}{\contentsline {subsubsection}{Emsablador motorola}{2}}
\@writefile{toc}{\contentsline {paragraph}{1970-1990}{2}}
\@writefile{toc}{\contentsline {paragraph}{1990-2018}{2}}
\@writefile{toc}{\contentsline {subsubsection}{Ensamblador Intel}{2}}
\@writefile{toc}{\contentsline {subsection}{\numberline {1.2.2}Interpretes}{2}}
\@writefile{toc}{\contentsline {subsection}{\numberline {1.2.3}Compiladores}{2}}
\@writefile{toc}{\contentsline {chapter}{\numberline {2}En proceso}{3}}
\@writefile{lof}{\addvspace {10\p@ }}
\@writefile{lot}{\addvspace {10\p@ }}
\@writefile{toc}{\contentsline {chapter}{\numberline {3}Introducci\IeC {\'o}n a lenguajes de marcas}{5}}
\@writefile{lof}{\addvspace {10\p@ }}
\@writefile{lot}{\addvspace {10\p@ }}
